> 03/06/2022 9:42:38 PM Munch Munch, Yum! 5.0 1.8
> 03/06/2022 9:44:21 PM Munch Munch, Yum! 5.0 1.8
> 03/06/2022 9:45:20 PM Munch Munch, Yum! 5.0 1.8
> 03/06/2022 9:45:41 PM Munch Munch, Yum! 5.0 1.8
> 03/06/2022 9:46:05 PM Munch Munch, Yum! 5.0 1.8
> 03/06/2022 9:50:29 PM Munch Munch, Yum! 5.0 1.8
> 03/06/2022 9:56:11 PM Munch Munch, Yum! 5.0 1.8
> 03/06/2022 9:56:31 PM Munch Munch, Yum! 5.0 1.8
> 03/06/2022 10:32:27 PM FEED MONEY:  1.00 1.00
> 03/06/2022 10:32:27 PM FEED MONEY:  2.00 3.00
> 03/06/2022 10:32:27 PM FEED MONEY:  5.00 8.00
> 03/06/2022 10:32:27 PM FEED MONEY:  10.00 18.00
> 03/06/2022 10:32:27 PM Chew Chew, Yum! 18.00 17.25
> 03/06/2022 10:32:27 PM Chew Chew, Yum! 17.25 16.50
> 03/06/2022 10:32:27 PM Chew Chew, Yum! 16.50 15.75
> 03/06/2022 10:32:27 PM Chew Chew, Yum! 15.75 15.00
> 03/06/2022 10:32:27 PM Chew Chew, Yum! 15.00 14.25
> 03/06/2022 10:35:17 PM Munch Munch, Yum! 5.0 1.8
> 03/06/2022 10:35:58 PM Munch Munch, Yum! 5.0 1.8
> 03/06/2022 10:37:44 PM Munch Munch, Yum! 5.0 1.8
> 03/06/2022 10:39:16 PM Munch Munch, Yum! 5.0 1.8
> 03/06/2022 10:43:46 PM Munch Munch, Yum! 5.0 1.8
> 03/06/2022 10:45:44 PM Munch Munch, Yum! 5.0 1.8
> 03/06/2022 10:47:36 PM Munch Munch, Yum! 5.0 1.8
> 03/06/2022 10:55:47 PM Munch Munch, Yum! 5.0 1.8
> 03/06/2022 10:55:47 PM FEED MONEY:  10.00 15.00
> 03/06/2022 11:02:11 PM FEED MONEY:  1.00 1.00
> 03/06/2022 11:02:11 PM FEED MONEY:  2.00 3.00
> 03/06/2022 11:02:11 PM FEED MONEY:  5.00 8.00
> 03/06/2022 11:02:11 PM FEED MONEY:  10.00 18.00
> 03/06/2022 11:02:11 PM Chew Chew, Yum! 18.00 17.25
> 03/06/2022 11:02:11 PM Chew Chew, Yum! 17.25 16.50
> 03/06/2022 11:02:11 PM Chew Chew, Yum! 16.50 15.75
> 03/06/2022 11:02:11 PM Chew Chew, Yum! 15.75 15.00
> 03/06/2022 11:02:11 PM Chew Chew, Yum! 15.00 14.25
> 03/06/2022 11:02:11 PM GIVE CHANGE:  14.25 0.00
